{
  "source": {
    "service_id": "Vue_id",
    "service_name": "Vueapp",
    "ippost": "192.168.2.251:8080",
    "domain": "web.com",
    "org": "ERP",
    "org_name": "ERP",
    "user": "Vueapp",
    "user_name": "Vueapp"
  }
}